{
	"info": {
		"_postman_id": "44276d0e-f931-478e-b53f-48e3cb88fc8f",
		"name": "Blog Management System",
		"schema": "https://schema.getpostman.com/json/collection/v2.1.0/collection.json",
		"_exporter_id": "18647283"
	},
	"item": [
		{
			"name": "Auth",
			"item": [
				{
					"name": "Login",
					"event": [
						{
							"listen": "test",
							"script": {
								"exec": [
									"var jsondata = pm.response.json();\r",
									"pm.collectionVariables.set(\"token\" , jsondata.data.token);"
								],
								"type": "text/javascript"
							}
						}
					],
					"request": {
						"method": "POST",
						"header": [
							{
								"key": "Accept",
								"value": "application/json",
								"type": "text"
							},
							{
								"key": "Content-Type",
								"value": "application/json",
								"type": "text"
							},
							{
								"key": "lang",
								"value": "en",
								"type": "text"
							}
						],
						"body": {
							"mode": "urlencoded",
							"urlencoded": [
								{
									"key": "email",
									"value": "lolav@gmail.com",
									"type": "text"
								},
								{
									"key": "password",
									"value": "password",
									"type": "text"
								}
							]
						},
						"url": {
							"raw": "{{base_url}}/Login",
							"host": [
								"{{base_url}}"
							],
							"path": [
								"Login"
							]
						}
					},
					"response": []
				},
				{
					"name": "Logout",
					"request": {
						"auth": {
							"type": "bearer",
							"bearer": [
								{
									"key": "token",
									"value": "{{token}}",
									"type": "string"
								}
							]
						},
						"method": "GET",
						"header": [
							{
								"key": "Accept",
								"value": "application/json",
								"type": "text"
							},
							{
								"key": "Content-Type",
								"value": "application/json",
								"type": "text"
							},
							{
								"key": "lang",
								"value": "en",
								"type": "text"
							}
						],
						"url": {
							"raw": "{{base_url}}/Logout",
							"host": [
								"{{base_url}}"
							],
							"path": [
								"Logout"
							]
						}
					},
					"response": []
				}
			]
		},
		{
			"name": "Blog",
			"item": [
				{
					"name": "Create",
					"request": {
						"auth": {
							"type": "bearer",
							"bearer": [
								{
									"key": "token",
									"value": "{{token}}",
									"type": "string"
								}
							]
						},
						"method": "POST",
						"header": [
							{
								"key": "Accept",
								"value": "application/json",
								"type": "text"
							},
							{
								"key": "Content-Type",
								"value": "application/json",
								"type": "text"
							},
							{
								"key": "lang",
								"value": "en",
								"type": "text"
							}
						],
						"body": {
							"mode": "formdata",
							"formdata": [
								{
									"key": "title",
									"value": "test",
									"type": "text"
								},
								{
									"key": "video",
									"type": "file",
									"src": []
								},
								{
									"key": "details",
									"value": "test",
									"type": "text"
								}
							]
						},
						"url": {
							"raw": "{{base_url}}/Blog",
							"host": [
								"{{base_url}}"
							],
							"path": [
								"Blog"
							]
						}
					},
					"response": []
				},
				{
					"name": "Read",
					"request": {
						"auth": {
							"type": "bearer",
							"bearer": [
								{
									"key": "token",
									"value": "{{token}}",
									"type": "string"
								}
							]
						},
						"method": "GET",
						"header": [
							{
								"key": "Accept",
								"value": "application/json",
								"type": "text"
							},
							{
								"key": "Content-Type",
								"value": "application/json",
								"type": "text"
							},
							{
								"key": "lang",
								"value": "en",
								"type": "text"
							}
						],
						"url": {
							"raw": "{{base_url}}/Blog",
							"host": [
								"{{base_url}}"
							],
							"path": [
								"Blog"
							]
						}
					},
					"response": []
				},
				{
					"name": "Update",
					"request": {
						"auth": {
							"type": "bearer",
							"bearer": [
								{
									"key": "token",
									"value": "{{token}}",
									"type": "string"
								}
							]
						},
						"method": "POST",
						"header": [
							{
								"key": "Accept",
								"value": "application/json",
								"type": "text"
							},
							{
								"key": "Content-Type",
								"value": "application/json",
								"type": "text"
							},
							{
								"key": "lang",
								"value": "en",
								"type": "text"
							}
						],
						"body": {
							"mode": "formdata",
							"formdata": [
								{
									"key": "title",
									"value": "test1",
									"type": "text"
								},
								{
									"key": "video",
									"type": "file",
									"src": [],
									"disabled": true
								},
								{
									"key": "details",
									"value": "test1",
									"type": "text"
								},
								{
									"key": "@method",
									"value": "put",
									"type": "text"
								}
							]
						},
						"url": {
							"raw": "{{base_url}}/Blog/1",
							"host": [
								"{{base_url}}"
							],
							"path": [
								"Blog",
								"1"
							]
						}
					},
					"response": []
				},
				{
					"name": "Delete",
					"request": {
						"auth": {
							"type": "bearer",
							"bearer": [
								{
									"key": "token",
									"value": "{{token}}",
									"type": "string"
								}
							]
						},
						"method": "DELETE",
						"header": [
							{
								"key": "Accept",
								"value": "application/json",
								"type": "text"
							},
							{
								"key": "Content-Type",
								"value": "application/json",
								"type": "text"
							},
							{
								"key": "lang",
								"value": "en",
								"type": "text"
							}
						],
						"url": {
							"raw": "{{base_url}}/Blog/1",
							"host": [
								"{{base_url}}"
							],
							"path": [
								"Blog",
								"1"
							]
						}
					},
					"response": []
				}
			]
		},
		{
			"name": "Comment",
			"item": [
				{
					"name": "Create",
					"request": {
						"auth": {
							"type": "bearer",
							"bearer": [
								{
									"key": "token",
									"value": "{{token}}",
									"type": "string"
								}
							]
						},
						"method": "POST",
						"header": [
							{
								"key": "Accept",
								"value": "application/json",
								"type": "text"
							},
							{
								"key": "Content-Type",
								"value": "application/json",
								"type": "text"
							},
							{
								"key": "lang",
								"value": "en",
								"type": "text"
							}
						],
						"body": {
							"mode": "formdata",
							"formdata": [
								{
									"key": "text",
									"value": "test",
									"type": "text"
								},
								{
									"key": "blog_id",
									"value": "1",
									"type": "text"
								}
							]
						},
						"url": {
							"raw": "{{base_url}}/Comment",
							"host": [
								"{{base_url}}"
							],
							"path": [
								"Comment"
							]
						}
					},
					"response": []
				}
			]
		}
	],
	"event": [
		{
			"listen": "prerequest",
			"script": {
				"type": "text/javascript",
				"exec": [
					""
				]
			}
		},
		{
			"listen": "test",
			"script": {
				"type": "text/javascript",
				"exec": [
					""
				]
			}
		}
	],
	"variable": [
		{
			"key": "base_url",
			"value": "http://127.0.0.1:8000/api/v1",
			"type": "string"
		},
		{
			"key": "token",
			"value": "",
			"type": "string"
		}
	]
}